<?xml version="1.0" encoding="UTF-8" standalone="no"?>
<!DOCTYPE svg PUBLIC "-//W3C//DTD SVG 1.0//EN" "http://www.w3.org/TR/2001/REC-SVG-20010904/DTD/svg10.dtd">
<!-- Created with Inkscape (http://www.inkscape.org/) by Marsupilami -->
<svg xmlns:svg="http://www.w3.org/2000/svg" xmlns="http://www.w3.org/2000/svg" version="1.0" width="90" height="63" viewBox="-187.819908 -187.819908 9320.639816 6636.303416" id="svg10326">
  <defs id="defs10328"/>
  <path d="M 7363.9998,52.756841 C 7363.9998,52.756841 7253.9998,32.756841 7112.9998,51.756841 L 6875.9998,97.756841 C 6875.9998,97.756841 6734.9998,138.75684 6618.9998,185.75684 C 6618.9998,185.75684 6513.9998,227.75684 6371.9998,298.75684 L 6147.9998,434.75684 C 6147.9998,434.75684 5954.9998,142.75684 5690.9998,36.756841 L 5686.9998,35.756841 L 5683.9998,33.756841 C 5683.9998,33.756841 5513.9998,-27.243159 5331.9998,14.756841 C 5331.9998,14.756841 5148.9998,56.756841 4997.9999,191.75684 L 4995.9999,192.75684 C 4995.9999,192.75684 4840.9999,332.75684 4718.9999,518.75684 C 4718.9999,518.75684 4583.9999,514.75684 4445.9999,513.75684 L 4333.9999,513.75684 C 4333.9999,513.75684 4241.9999,508.75684 4066.9998,520.75684 L 3805.9998,529.75684 C 3805.9998,529.75684 3497.9998,545.75684 3173.9999,616.75684 C 3173.9999,616.75684 3081.9999,622.75684 3021.9999,590.75684 C 3021.9999,590.75684 2733.9999,441.75684 2309.9999,302.75684 L 2090.9999,246.75684 C 2090.9999,246.75684 1954.9999,213.75684 1858.9999,203.75684 C 1858.9999,203.75684 1586.9999,176.75684 1425.9999,310.75684 C 1425.9999,310.75684 1231,539.75684 1139,837.75684 C 1139,837.75684 1075,1032.7568 1057,1310.7568 C 1057,1310.7568 1051,1483.7568 1093,1690.7569 C 1093,1690.7569 1116,1807.7569 1185,2057.7569 C 1185,2057.7569 1196,2091.7569 1176,2128.7569 C 1176,2128.7569 807,2768.7569 787,3402.7569 C 787,3402.7569 785,3411.7569 786,3509.7569 C 786,3509.7569 786,3573.7569 748,3598.7568 L 555,3616.7568 L 308,3644.7568 C 308,3644.7568 159,3661.7568 71,3703.7568 C 71,3703.7568 2,3732.7568 0,3823.7568 C 0,3823.7568 5,3861.7568 39,3875.7568 C 39,3875.7568 112,3887.7568 217,3874.7568 L 392,3855.7568 L 637,3834.7568 L 727,3832.7568 C 727,3832.7568 779,3835.7568 799,3870.7568 C 799,3870.7568 820,3943.7568 855,4110.7568 C 855,4110.7568 888,4266.7568 914,4347.7568 C 914,4347.7568 925,4376.7568 915,4400.7568 C 915,4400.7568 903,4427.7568 864,4442.7568 L 664,4500.7568 C 664,4500.7568 548,4536.7568 473,4583.7568 C 473,4583.7568 441,4594.7568 423,4628.7568 C 423,4628.7568 408,4658.7568 412,4682.7568 C 412,4682.7568 416,4705.7568 455,4725.7568 C 455,4725.7568 500,4748.7568 551,4740.7568 C 551,4740.7568 643,4725.7568 716,4701.7568 L 898,4663.7568 C 898,4663.7568 999,4649.7568 1060,4711.7568 L 1140,4852.7568 L 1226,4991.7568 C 1226,4991.7568 1234,5010.7568 1272,5057.7568 C 1272,5057.7568 1292,5078.7568 1287,5112.7568 C 1287,5112.7568 1281,5149.7568 1245,5168.7568 C 1245,5168.7568 1135,5238.7568 907,5367.7568 C 907,5367.7568 853,5399.7568 797,5446.7568 C 797,5446.7568 719,5511.7568 693,5563.7568 L 693,5623.7568 C 693,5623.7568 697,5659.7568 719,5675.7568 C 719,5675.7568 755,5690.7568 794,5685.7568 C 794,5685.7568 830,5680.7568 858,5659.7568 L 1137,5487.7568 C 1137,5487.7568 1304,5383.7568 1421.9999,5335.7568 C 1421.9999,5335.7568 1447.9999,5319.7568 1480.9999,5319.7568 C 1480.9999,5319.7568 1516.9999,5320.7568 1542.9999,5344.7568 C 1542.9999,5344.7568 1749.9999,5506.7568 1868.9999,5588.7568 C 1868.9999,5588.7568 2174.9999,5799.7568 2425.9999,5902.7568 C 2425.9999,5902.7568 2735.9999,6028.7568 2984.9999,6089.7568 C 2984.9999,6089.7568 3215.9999,6145.7568 3559.9998,6184.7568 L 4063.9998,6233.7568 C 4063.9998,6233.7568 4657.9999,6287.7568 5244.9998,6242.7568 C 5244.9998,6242.7568 5538.9998,6220.7568 5712.9998,6186.7568 C 5712.9998,6186.7568 5985.9998,6155.7568 6283.9998,6071.7568 C 6283.9998,6071.7568 6499.9998,6010.7568 6688.9998,5934.7568 C 6688.9998,5934.7568 6873.9998,5860.7568 7038.9998,5752.7568 C 7038.9998,5752.7568 7155.9998,5676.7568 7364.9998,5510.7568 C 7364.9998,5510.7568 7505.9998,5386.7568 7624.9998,5253.7568 C 7624.9998,5253.7568 7642.9998,5233.7568 7672.9998,5223.7568 L 7732.9998,5222.7568 C 7732.9998,5222.7568 7769.9998,5231.7568 7830.9998,5259.7568 C 7830.9998,5259.7568 7899.9998,5292.7568 7927.9998,5301.7568 L 8142.9998,5396.7568 C 8142.9998,5396.7568 8271.9998,5455.7568 8363.9998,5469.7568 C 8363.9998,5469.7568 8397.9998,5471.7568 8419.9998,5447.7568 C 8419.9998,5447.7568 8438.9998,5427.7568 8439.9998,5401.7568 C 8439.9998,5401.7568 8456.9998,5341.7568 8398.9998,5289.7568 C 8398.9998,5289.7568 8301.9998,5220.7568 8137.9998,5140.7568 L 7868.9998,5008.7568 C 7868.9998,5008.7568 7833.9998,4990.7568 7824.9998,4964.7568 C 7824.9998,4964.7568 7817.9998,4943.7568 7828.9998,4926.7568 L 7898.9998,4769.7568 L 7967.9998,4610.7568 L 8000.9998,4523.7568 C 8000.9998,4523.7568 8022.9998,4472.7568 8068.9998,4463.7568 L 8270.9998,4475.7568 L 8468.9998,4502.7568 L 8585.9998,4506.7568 C 8585.9998,4506.7568 8658.9998,4506.7568 8698.9998,4481.7568 C 8698.9998,4481.7568 8716.9998,4467.7568 8716.9998,4433.7568 C 8716.9998,4433.7568 8716.9998,4399.7568 8696.9998,4388.7568 C 8696.9998,4388.7568 8561.9998,4309.7568 8387.9998,4278.7568 L 8285.9998,4261.7568 L 8195.9998,4247.7568 L 8139.9998,4240.7568 C 8139.9998,4240.7568 8115.9998,4235.7568 8096.9998,4217.7568 C 8096.9998,4217.7568 8076.9998,4198.7568 8080.9998,4181.7568 C 8080.9998,4181.7568 8083.9998,4117.7568 8101.9998,3991.7568 C 8101.9998,3991.7568 8119.9998,3865.7568 8121.9998,3798.7568 L 8122.9998,3724.7568 C 8122.9998,3724.7568 8121.9998,3679.7568 8147.9998,3659.7568 C 8147.9998,3659.7568 8257.9998,3627.7568 8446.9998,3638.7568 L 8756.9998,3650.7568 L 8858.9998,3643.7568 C 8858.9998,3643.7568 8940.9998,3631.7568 8944.9998,3570.7569 C 8944.9998,3570.7569 8935.9998,3522.7569 8884.9998,3494.7569 C 8884.9998,3494.7569 8878.9998,3490.7569 8792.9998,3457.7569 L 8559.9998,3431.7569 L 8310.9998,3424.7569 L 8239.9998,3428.7569 C 8239.9998,3428.7569 8197.9998,3432.7569 8176.9998,3428.7569 C 8176.9998,3428.7569 8153.9998,3429.7569 8136.9998,3406.7569 C 8136.9998,3406.7569 8121.9998,3387.7569 8119.9998,3365.7569 L 8057.9998,2968.7569 C 8057.9998,2968.7569 8020.9998,2792.7569 7936.9998,2608.7569 C 7936.9998,2608.7569 7998.9998,2522.7569 8090.9998,2364.7569 L 8096.9998,2351.7569 C 8096.9998,2351.7569 8244.9998,2040.7569 8248.9998,1733.7569 C 8248.9998,1733.7569 8250.9998,1648.7569 8238.9998,1566.7568 C 8238.9998,1566.7568 8223.9998,1444.7568 8135.9998,1344.7568 C 8135.9998,1344.7568 8047.9998,1245.7568 7926.9998,1214.7568 L 7875.9998,1202.7568 C 7875.9998,1202.7568 7846.9998,711.75684 7704.9998,389.75684 C 7704.9998,389.75684 7625.9998,246.75684 7572.9998,185.75684 C 7572.9998,185.75684 7480.9998,78.756841 7363.9998,52.756841" id="path9500" style="fill:#000000;fill-opacity:1;stroke:none;stroke-width:1px;stroke-linecap:round;stroke-linejoin:round;stroke-opacity:1"/>
  <path d="M 7177.9998,334.75684 C 7177.9998,334.75684 7107.9998,341.75684 6934.9998,398.75684 C 6934.9998,398.75684 6797.9998,443.75684 6669.9998,493.75684 C 6669.9998,493.75684 6544.9998,534.75684 6279.9998,683.75684 L 6335.9998,825.75684 L 6351.9998,872.75684 L 6352.9998,875.75684 C 6352.9998,875.75684 6371.9998,930.75684 6377.9998,1002.7568 C 6377.9998,1002.7568 6524.9998,1007.7568 6651.9998,1064.7568 C 6651.9998,1064.7568 6782.9998,1122.7568 6881.9998,1229.7568 L 6936.9998,1296.7568 C 6936.9998,1296.7568 6980.9998,1257.7568 7030.9998,1243.7568 C 7030.9998,1243.7568 7309.9998,1150.7568 7603.9998,1162.7568 L 7587.9998,1023.7568 L 7559.9998,838.75684 C 7559.9998,838.75684 7534.9998,707.75684 7497.9998,612.75684 C 7497.9998,612.75684 7456.9998,506.75684 7384.9998,398.75684 C 7384.9998,398.75684 7351.9998,335.75684 7282.9998,327.75684 L 7177.9998,334.75684" id="path9502" style="fill:#ffffff;fill-opacity:1;stroke:none;stroke-width:1px;stroke-linecap:round;stroke-linejoin:round;stroke-opacity:1"/>
  <path d="M 6568.9998,2530.7569 C 6568.9998,2530.7569 6544.9998,2488.7569 6538.9998,2441.7569 C 6538.9998,2441.7569 6438.9998,2467.7569 6339.9998,2466.7569 C 6339.9998,2466.7569 6157.9998,2467.7569 5995.9998,2378.7569 C 5995.9998,2378.7569 5834.9998,2290.7569 5730.9998,2135.7569 C 5730.9998,2135.7569 5700.9998,2160.7569 5670.9998,2174.7569 L 5648.9998,2182.7569 C 5648.9998,2182.7569 5311.9998,2295.7569 5059.9999,2278.7569 C 5059.9999,2278.7569 4807.9999,2261.7569 4629.9999,2112.7569 L 4624.9999,2108.7569 L 4620.9999,2103.7569 C 4620.9999,2103.7569 4376.9999,1871.7569 4397.9999,1471.7568 C 4397.9999,1471.7568 4409.9999,1248.7568 4524.9999,902.75684 L 4526.9999,894.75684 L 4554.9999,827.75684 C 4554.9999,827.75684 4222.9999,829.75684 3895.9998,842.75684 L 3441.9998,875.75684 C 3441.9998,875.75684 3392.9998,878.75684 3316.9998,896.75684 L 3189.9999,925.75684 C 3189.9999,925.75684 3039.9999,954.75684 2943.9999,899.75684 C 2943.9999,899.75684 2515.9999,648.75684 2070.9999,535.75684 C 2070.9999,535.75684 1892.9999,497.75684 1814.9999,495.75684 C 1814.9999,495.75684 1658.9999,492.75684 1578.9999,574.75684 C 1578.9999,574.75684 1440.9999,740.75684 1378,970.75684 C 1378,970.75684 1324,1165.7568 1318,1427.7568 C 1318,1427.7568 1329,1532.7568 1346,1604.7569 C 1346,1604.7569 1368,1697.7569 1405,1768.7569 C 1405,1768.7569 1417,1789.7569 1444.9999,1780.7569 L 1501.9999,1747.7569 C 1501.9999,1747.7569 1535.9999,1732.7569 1567.9999,1738.7569 C 1567.9999,1738.7569 1624.9999,1746.7569 1641.9999,1802.7569 C 1641.9999,1802.7569 1653.9999,1850.7569 1625.9999,1910.7569 L 1443.9999,2178.7569 C 1443.9999,2178.7569 1344,2334.7569 1296,2461.7569 C 1296,2461.7569 1057,2978.7569 1050,3565.7569 C 1050,3565.7569 1060,3584.7569 1076,3599.7568 C 1076,3599.7568 1093,3615.7568 1110,3617.7568 L 1249,3632.7568 L 1390,3654.7568 C 1390,3654.7568 1419.9999,3668.7568 1495.9999,3689.7568 C 1495.9999,3689.7568 1556.9999,3715.7568 1553.9999,3774.7568 C 1553.9999,3774.7568 1537.9999,3839.7568 1459.9999,3846.7568 C 1459.9999,3846.7568 1365,3842.7568 1327,3846.7568 L 1236,3839.7568 L 1144,3837.7568 C 1144,3837.7568 1117,3838.7568 1102,3854.7568 C 1102,3854.7568 1087,3870.7568 1088,3899.7568 L 1088,3943.7568 C 1088,3943.7568 1106,4147.7568 1203,4357.7568 C 1203,4357.7568 1237,4387.7568 1291,4367.7568 L 1422.9999,4353.7568 L 1539.9999,4361.7568 C 1539.9999,4361.7568 1573.9999,4370.7568 1585.9999,4402.7568 C 1585.9999,4402.7568 1595.9999,4430.7568 1587.9999,4461.7568 C 1587.9999,4461.7568 1584.9999,4474.7568 1556.9999,4494.7568 C 1556.9999,4494.7568 1429.9999,4540.7568 1349,4562.7568 C 1349,4562.7568 1324,4573.7568 1313,4593.7568 C 1313,4593.7568 1301,4615.7568 1313,4638.7568 C 1313,4638.7568 1347,4712.7568 1405,4799.7568 L 1514.9999,4949.7568 C 1514.9999,4949.7568 1562.9999,5010.7568 1662.9999,4991.7568 L 1791.9999,4937.7568 C 1791.9999,4937.7568 1861.9999,4912.7568 1928.9999,4915.7568 C 1928.9999,4915.7568 1969.9999,4917.7568 1991.9999,4954.7568 C 1991.9999,4954.7568 2010.9999,4986.7568 2005.9999,5025.7568 C 2005.9999,5025.7568 1978.9999,5072.7568 1903.9999,5109.7568 C 1903.9999,5109.7568 1815.9999,5152.7568 1789.9999,5179.7568 C 1789.9999,5179.7568 1781.9999,5202.7568 1792.9999,5209.7568 C 1792.9999,5209.7568 2035.9999,5393.7568 2243.9999,5512.7568 C 2243.9999,5512.7568 2497.9999,5658.7568 2731.9999,5728.7568 C 2731.9999,5728.7568 3054.9999,5824.7568 3163.9999,5850.7568 C 3163.9999,5850.7568 3447.9998,5918.7568 3753.9998,5942.7568 C 3753.9998,5942.7568 4390.9999,6014.7568 5067.9999,5976.7568 C 5067.9999,5976.7568 5615.9998,5946.7568 5930.9998,5866.7568 C 5930.9998,5866.7568 6425.9998,5785.7568 6866.9998,5535.7568 C 6866.9998,5535.7568 7020.9998,5442.7568 7115.9998,5371.7568 C 7115.9998,5371.7568 7249.9998,5268.7568 7335.9998,5158.7568 C 7335.9998,5158.7568 7350.9998,5139.7568 7348.9998,5122.7568 C 7348.9998,5122.7568 7346.9998,5105.7568 7330.9998,5094.7568 C 7330.9998,5094.7568 7272.9998,5066.7568 7245.9998,5049.7568 C 7245.9998,5049.7568 7198.9998,5020.7568 7184.9998,4978.7568 C 7184.9998,4978.7568 7176.9998,4956.7568 7181.9998,4930.7568 C 7181.9998,4930.7568 7187.9998,4900.7568 7209.9998,4888.7568 C 7209.9998,4888.7568 7255.9998,4855.7568 7325.9998,4868.7568 L 7446.9998,4895.7568 C 7446.9998,4895.7568 7524.9998,4915.7568 7555.9998,4844.7568 C 7555.9998,4844.7568 7670.9998,4647.7568 7718.9998,4492.7568 C 7718.9998,4492.7568 7732.9998,4458.7568 7721.9998,4435.7568 C 7721.9998,4435.7568 7712.9998,4417.7568 7692.9998,4411.7568 L 7562.9998,4373.7568 C 7562.9998,4373.7568 7489.9998,4341.7568 7491.9998,4287.7568 C 7491.9998,4287.7568 7506.9998,4228.7568 7562.9998,4211.7568 L 7682.9998,4206.7568 L 7749.9998,4210.7568 C 7749.9998,4210.7568 7790.9998,4209.7568 7806.9998,4183.7568 C 7806.9998,4183.7568 7829.9998,4055.7568 7845.9998,3918.7568 C 7845.9998,3918.7568 7855.9998,3866.7568 7851.9998,3756.7568 C 7851.9998,3756.7568 7854.9998,3715.7568 7837.9998,3702.7568 C 7837.9998,3702.7568 7829.9998,3695.7568 7799.9998,3692.7568 L 7788.9998,3691.7568 L 7628.9998,3714.7568 L 7468.9998,3735.7568 C 7468.9998,3735.7568 7387.9998,3731.7568 7360.9998,3662.7568 C 7360.9998,3662.7568 7347.9998,3603.7568 7398.9998,3565.7569 C 7398.9998,3565.7569 7445.9998,3541.7569 7507.9998,3528.7569 L 7610.9998,3505.7569 L 7717.9998,3489.7569 C 7717.9998,3489.7569 7785.9998,3481.7569 7821.9998,3466.7569 C 7821.9998,3466.7569 7852.9998,3449.7569 7852.9998,3406.7569 C 7852.9998,3406.7569 7826.9998,3143.7569 7756.9998,2919.7569 L 7730.9998,2835.7569 C 7730.9998,2835.7569 7461.9998,3068.7569 7158.9998,3023.7569 C 7158.9998,3023.7569 6958.9998,2993.7569 6789.9998,2837.7569 C 6789.9998,2837.7569 6648.9998,2706.7569 6568.9998,2530.7569" id="path9504" style="fill:#ffffff;fill-opacity:1;stroke:none;stroke-width:1px;stroke-linecap:round;stroke-linejoin:round;stroke-opacity:1"/>
  <path d="M 2549.9999,3733.7568 C 2549.9999,3733.7568 2610.9999,3708.7568 2681.9999,3726.7568 C 2681.9999,3726.7568 2741.9999,3741.7568 2797.9999,3784.7568 C 2797.9999,3784.7568 2861.9999,3852.7568 2878.9999,3961.7568 C 2878.9999,3961.7568 2891.9999,4045.7568 2878.9999,4164.7568 C 2878.9999,4164.7568 2865.9999,4240.7568 2831.9999,4297.7568 C 2831.9999,4297.7568 2789.9999,4365.7568 2724.9999,4393.7568 C 2724.9999,4393.7568 2648.9999,4419.7568 2571.9999,4407.7568 C 2571.9999,4407.7568 2488.9999,4393.7568 2438.9999,4339.7568 C 2438.9999,4339.7568 2370.9999,4258.7568 2360.9999,4132.7568 C 2360.9999,4132.7568 2351.9999,4022.7568 2387.9999,3905.7568 C 2387.9999,3905.7568 2406.9999,3849.7568 2449.9999,3802.7568 C 2449.9999,3802.7568 2495.9999,3750.7568 2549.9999,3733.7568" id="path9506" style="fill:#000000;fill-opacity:1;stroke:none;stroke-width:1px;stroke-linecap:round;stroke-linejoin:round;stroke-opacity:1"/>
  <path d="M 4783.9999,4890.7568 C 4783.9999,4890.7568 4664.9999,4970.7568 4497.9999,4964.7568 C 4497.9999,4964.7568 4348.9999,4959.7568 4209.9999,4891.7568 C 4209.9999,4891.7568 4137.9999,4855.7568 4104.9999,4782.7568 C 4104.9999,4782.7568 4072.9998,4712.7568 4083.9998,4625.7568 C 4083.9998,4625.7568 4092.9998,4559.7568 4125.9999,4505.7568 C 4125.9999,4505.7568 4163.9999,4446.7568 4221.9999,4417.7568 C 4221.9999,4417.7568 4333.9999,4343.7568 4491.9999,4346.7568 C 4491.9999,4346.7568 4645.9999,4349.7568 4764.9999,4420.7568 C 4764.9999,4420.7568 4820.9999,4446.7568 4858.9999,4501.7568 C 4858.9999,4501.7568 4895.9999,4555.7568 4903.9999,4619.7568 C 4903.9999,4619.7568 4913.9999,4702.7568 4881.9999,4773.7568 C 4881.9999,4773.7568 4850.9999,4844.7568 4783.9999,4890.7568" id="path9508" style="fill:#000000;fill-opacity:1;stroke:none;stroke-width:1px;stroke-linecap:round;stroke-linejoin:round;stroke-opacity:1"/>
  <path d="M 4523.9999,4514.7568 C 4523.9999,4514.7568 4626.9999,4522.7568 4681.9999,4587.7568 C 4681.9999,4587.7568 4701.9999,4602.7568 4709.9999,4629.7568 L 4719.9999,4679.7568 C 4719.9999,4679.7568 4718.9999,4709.7568 4696.9999,4735.7568 C 4696.9999,4735.7568 4676.9999,4759.7568 4647.9999,4772.7568 C 4647.9999,4772.7568 4570.9999,4811.7568 4472.9999,4806.7568 C 4472.9999,4806.7568 4371.9999,4802.7568 4303.9999,4752.7568 C 4303.9999,4752.7568 4244.9999,4696.7568 4265.9999,4642.7568 C 4265.9999,4642.7568 4272.9999,4613.7568 4295.9999,4584.7568 C 4295.9999,4584.7568 4317.9999,4556.7568 4344.9999,4541.7568 C 4344.9999,4541.7568 4434.9999,4506.7568 4523.9999,4514.7568" id="path9510" style="fill:#eec827;fill-opacity:1;stroke:none;stroke-width:1px;stroke-linecap:round;stroke-linejoin:round;stroke-opacity:1"/>
  <path d="M 6503.9998,4119.7568 C 6503.9998,4119.7568 6466.9998,4360.7568 6310.9998,4409.7568 C 6310.9998,4409.7568 6237.9998,4431.7568 6163.9998,4402.7568 C 6163.9998,4402.7568 6091.9998,4374.7568 6044.9998,4309.7568 C 6044.9998,4309.7568 5999.9998,4246.7568 5990.9998,4151.7568 C 5990.9998,4151.7568 5983.9998,4085.7568 5993.9998,3978.7568 C 5993.9998,3978.7568 6008.9998,3904.7568 6047.9998,3844.7568 C 6047.9998,3844.7568 6091.9998,3776.7568 6153.9998,3748.7568 C 6153.9998,3748.7568 6204.9998,3728.7568 6270.9998,3733.7568 C 6270.9998,3733.7568 6334.9998,3738.7568 6382.9998,3763.7568 C 6382.9998,3763.7568 6529.9998,3882.7568 6503.9998,4119.7568" id="path9512" style="fill:#000000;fill-opacity:1;stroke:none;stroke-width:1px;stroke-linecap:round;stroke-linejoin:round;stroke-opacity:1"/>
  <path d="M 5358.9998,214.75684 C 5358.9998,214.75684 5492.9998,177.75684 5615.9998,222.75684 C 5615.9998,222.75684 5805.9998,299.75684 5951.9998,502.75684 C 5951.9998,502.75684 6065.9998,662.75684 6146.9998,892.75684 C 6146.9998,892.75684 6151.9998,913.75684 6163.9998,940.75684 L 6166.9998,975.75684 C 6166.9998,975.75684 6162.9998,993.75684 6146.9998,998.75684 C 6146.9998,998.75684 6062.9998,1027.7568 6016.9998,1049.7568 L 5984.9998,1057.7568 C 5984.9998,1057.7568 5966.9998,1055.7568 5959.9998,1041.7568 L 5911.9998,1001.7568 C 5911.9998,1001.7568 5812.9998,929.75684 5683.9998,924.75684 C 5683.9998,924.75684 5555.9998,918.75684 5447.9998,981.75684 C 5447.9998,981.75684 5326.9998,1054.7568 5270.9998,1177.7568 C 5270.9998,1177.7568 5216.9998,1296.7568 5234.9998,1435.7568 C 5234.9998,1435.7568 5251.9998,1535.7568 5317.9998,1623.7569 C 5317.9998,1623.7569 5383.9998,1712.7569 5474.9998,1755.7569 C 5474.9998,1755.7569 5511.9998,1773.7569 5547.9998,1781.7569 C 5547.9998,1781.7569 5593.9998,1791.7569 5598.9998,1822.7569 L 5620.9998,1937.7569 C 5620.9998,1937.7569 5630.9998,1972.7569 5584.9998,1992.7569 C 5584.9998,1992.7569 5024.9999,2180.7569 4758.9999,1958.7569 C 4758.9999,1958.7569 4581.9999,1789.7569 4598.9999,1479.7568 C 4598.9999,1479.7568 4609.9999,1282.7568 4714.9999,965.75684 C 4714.9999,965.75684 4781.9999,787.75684 4884.9999,630.75684 C 4884.9999,630.75684 4993.9999,465.75684 5130.9998,341.75684 C 5130.9998,341.75684 5234.9998,248.75684 5358.9998,214.75684" id="path9514" style="fill:#e72235;fill-opacity:1;stroke:none;stroke-width:1px;stroke-linecap:round;stroke-linejoin:round;stroke-opacity:1"/>
  <path d="M 5450.9998,1386.7568 C 5450.9998,1386.7568 5457.9998,1439.7568 5490.9998,1485.7568 C 5490.9998,1485.7568 5523.9998,1533.7568 5571.9998,1557.7568 L 5597.9998,1558.7568 C 5597.9998,1558.7568 5611.9998,1551.7568 5617.9998,1534.7568 C 5617.9998,1534.7568 5665.9998,1364.7568 5772.9998,1241.7568 C 5772.9998,1241.7568 5786.9998,1223.7568 5785.9998,1202.7568 C 5785.9998,1202.7568 5784.9998,1183.7568 5773.9998,1175.7568 C 5773.9998,1175.7568 5727.9998,1149.7568 5673.9998,1146.7568 C 5673.9998,1146.7568 5618.9998,1142.7568 5573.9998,1165.7568 C 5573.9998,1165.7568 5510.9998,1195.7568 5477.9998,1255.7568 C 5477.9998,1255.7568 5443.9998,1316.7568 5450.9998,1386.7568" id="path9516" style="fill:#e72235;fill-opacity:1;stroke:none;stroke-width:1px;stroke-linecap:round;stroke-linejoin:round;stroke-opacity:1"/>
  <path d="M 6735.9998,1366.7568 C 6735.9998,1366.7568 6843.9998,1478.7568 6870.9998,1640.7569 C 6870.9998,1640.7569 6896.9998,1800.7569 6834.9998,1942.7569 C 6834.9998,1942.7569 6777.9998,2087.7569 6636.9998,2178.7569 C 6636.9998,2178.7569 6497.9998,2269.7569 6341.9998,2265.7569 C 6341.9998,2265.7569 6197.9998,2267.7569 6069.9998,2189.7569 C 6069.9998,2189.7569 5943.9998,2111.7569 5871.9998,1980.7569 C 5871.9998,1980.7569 5797.9998,1850.7569 5814.9998,1680.7569 C 5814.9998,1680.7569 5831.9998,1510.7568 5929.9998,1397.7568 C 5929.9998,1397.7568 6003.9998,1294.7568 6150.9998,1229.7568 C 6150.9998,1229.7568 6303.9998,1172.7568 6465.9998,1211.7568 C 6465.9998,1211.7568 6627.9998,1249.7568 6735.9998,1366.7568" id="path9518" style="fill:#e72235;fill-opacity:1;stroke:none;stroke-width:1px;stroke-linecap:round;stroke-linejoin:round;stroke-opacity:1"/>
  <path d="M 7874.9998,1408.7568 C 7874.9998,1408.7568 7935.9998,1422.7568 7983.9998,1477.7568 C 7983.9998,1477.7568 8032.9998,1531.7568 8039.9998,1593.7568 C 8039.9998,1593.7568 8061.9998,1758.7569 8024.9998,1941.7569 C 8024.9998,1941.7569 7991.9998,2104.7569 7915.9998,2265.7569 C 7915.9998,2265.7569 7770.9998,2523.7569 7628.9998,2658.7569 C 7628.9998,2658.7569 7417.9998,2858.7569 7188.9998,2825.7569 C 7188.9998,2825.7569 7047.9998,2804.7569 6922.9998,2686.7569 C 6922.9998,2686.7569 6808.9998,2580.7569 6745.9998,2435.7569 C 6745.9998,2435.7569 6733.9998,2422.7569 6737.9998,2400.7569 C 6737.9998,2400.7569 6740.9998,2379.7569 6754.9998,2367.7569 L 6807.9998,2327.7569 C 6807.9998,2327.7569 6843.9998,2307.7569 6874.9998,2334.7569 C 6874.9998,2334.7569 6953.9998,2389.7569 7050.9998,2402.7569 C 7050.9998,2402.7569 7152.9998,2415.7569 7237.9998,2377.7569 C 7237.9998,2377.7569 7335.9998,2338.7569 7401.9998,2247.7569 C 7401.9998,2247.7569 7467.9998,2156.7569 7474.9998,2050.7569 C 7474.9998,2050.7569 7479.9998,1947.7569 7438.9998,1859.7569 C 7438.9998,1859.7569 7396.9998,1769.7569 7313.9998,1709.7569 C 7313.9998,1709.7569 7233.9998,1656.7569 7137.9998,1644.7569 C 7137.9998,1644.7569 7115.9998,1640.7569 7101.9998,1628.7569 C 7101.9998,1628.7569 7087.9998,1615.7569 7085.9998,1597.7568 L 7058.9998,1487.7568 C 7058.9998,1487.7568 7055.9998,1445.7568 7089.9998,1434.7568 C 7089.9998,1434.7568 7276.9998,1371.7568 7477.9998,1363.7568 C 7477.9998,1363.7568 7687.9998,1354.7568 7874.9998,1408.7568" id="path9520" style="fill:#e72235;fill-opacity:1;stroke:none;stroke-width:1px;stroke-linecap:round;stroke-linejoin:round;stroke-opacity:1"/>
  <path d="M 7208.9998,2134.7569 C 7208.9998,2134.7569 7175.9998,2170.7569 7139.9998,2178.7569 L 7068.9998,2181.7569 C 7068.9998,2181.7569 7034.9998,2174.7569 7006.9998,2151.7569 C 7006.9998,2151.7569 6996.9998,2143.7569 6996.9998,2125.7569 C 6996.9998,2125.7569 6995.9998,2106.7569 7005.9998,2092.7569 C 7005.9998,2092.7569 7052.9998,2005.7569 7077.9998,1901.7569 C 7077.9998,1901.7569 7078.9998,1886.7569 7093.9998,1873.7569 C 7093.9998,1873.7569 7108.9998,1860.7569 7121.9998,1863.7569 C 7121.9998,1863.7569 7170.9998,1869.7569 7214.9998,1914.7569 C 7214.9998,1914.7569 7274.9998,1983.7569 7250.9998,2063.7569 C 7250.9998,2063.7569 7240.9998,2100.7569 7208.9998,2134.7569" id="path9522" style="fill:#e72235;fill-opacity:1;stroke:none;stroke-width:1px;stroke-linecap:round;stroke-linejoin:round;stroke-opacity:1"/>
</svg>
<!-- version: 20090314, original size: 8945 6260.6636, border: 3% -->